Spotify Data Analysis
…
## genre 
##     6

Spotify <-na.omit(Spotify)

And now I have the simple genre and I will begin my data exploration

Data exploration

I wanna know which song is the most popular song? Which artist has the most popular song from 2010-2019? and which artist has most popular song in 2019 By running the codes I know that, the most popular song in 2019 is Memories by Maroon 5, Katy Perry has the most popular songs from 2010 - 2019 and Ed Sheeran has the most popular songs in 2019

most_popular <- Spotify%>%arrange(desc(pop))
most_popular

## # A tibble: 597 x 16
##    Number title artist variable genre  year   bpm  nrgy  dnce    dB  live   val
##     <dbl> <chr> <chr>  <chr>    <chr> <dbl> <dbl> <dbl> <dbl> <dbl> <dbl> <dbl>
##  1    573 "Mem~ Maroo~ pop      pop    2019    91    32    76    -7     8    57
##  2    574 "Los~ Selen~ dance    pop    2019   102    34    51    -9    21     9
##  3    575 "Som~ Lewis~ pop      pop    2019   110    41    50    -6    11    45
##  4    576 "Se\~ Shawn~ canadian pop    2019   117    54    76    -6     9    75
##  5    577 "How~ Sam S~ pop      pop    2019   111    68    48    -5     8    35
##  6    578 "Sou~ Ed Sh~ pop      pop    2019    98    62    86    -6     9    67
##  7    579 "Tra~ SHAED  electro~ pop    2019   127    46    62    -6    14    50
##  8    580 "Hap~ Marsh~ brostep  Other  2019   100    79    69    -3    17    67
##  9    581 "Tru~ Lizzo  escape   Other  2019   158    62    72    -3    12    41
## 10    582 "Goo~ Lizzo  escape   Other  2019    96    89    67    -3    74    48
## # ... with 587 more rows, and 4 more variables: dur <dbl>, acous <dbl>,
## #   spch <dbl>, pop <dbl>
…
most_nrgy_artist <-Spotify%>%arrange(desc(nrgy))%>%select(artist,nrgy,title)
most_nrgy_artist

## # A tibble: 597 x 3
##    artist               nrgy title                                   
##    <chr>               <dbl> <chr>                                   
##  1 Martin Solveig         98 Hello                                   
##  2 Jonas Brothers         98 Pom Poms                                
##  3 Pitbull                96 Don't Stop the Party (feat. TJR)        
##  4 Avril Lavigne          96 Rock N Roll                             
##  5 OneRepublic            95 All The Right Moves                     
##  6 Tinie Tempah           95 Written in the Stars (feat. Eric Turner)
##  7 Tinie Tempah           95 Written in the Stars (feat. Eric Turner)
##  8 Little Mix             95 How Ya Doin'? (feat. Missy Elliott)     
##  9 5 Seconds of Summer    95 She Looks So Perfect                    
## 10 Jennifer Lopez         95 Booty                                   
## # ... with 587 more rows
…
most_dnce_artist <-Spotify%>%arrange(desc(dnce))%>%select(artist,dnce,title)
most_dnce_artist

## # A tibble: 597 x 3
##    artist             dnce title                
##    <chr>             <dbl> <chr>                
##  1 Selena Gomez         97 Bad Liar             
##  2 Cardi B              97 Drip (feat. Migos)   
##  3 Nicki Minaj          96 Anaconda             
##  4 Pharrell Williams    93 Come Get It Bae      
##  5 Meghan Trainor       93 Me Too               
##  6 Missy Elliott        93 WTF (Where They From)
##  7 Cardi B              93 Bodak Yellow         
##  8 N.E.R.D              92 Lemon                
##  9 Iggy Azalea          91 Fancy                
## 10 Jennifer Hudson      90 Dangerous            
## # ... with 587 more rows
…
most_val_artist <-Spotify%>%arrange(desc(val))%>%select(artist,val,title)
most_val_artist

## # A tibble: 597 x 3
##    artist              val title                             
##    <chr>             <dbl> <chr>                             
##  1 Austin Mahone        98 "Mmm Yeah (feat. Pitbull)"        
##  2 Shawn Mendes         97 "There's Nothing Holdin' Me Back" 
##  3 Pharrell Williams    96 "Happy - From \"Despicable Me 2\""
##  4 Meghan Trainor       96 "All About That Bass"             
##  5 Pitbull              95 "Don't Stop the Party (feat. TJR)"
##  6 Meghan Trainor       95 "Lips Are Movin"                  
##  7 Jonas Brothers       95 "Sucker"                          
##  8 Taylor Swift         94 "Shake It Off"                    
##  9 Bruno Mars           94 "Treasure"                        
## 10 Ed Sheeran           94 "Sing"                            
## # ... with 587 more rows
…
spch_pop <-Spotify%>%filter(spch>=20)%>%group_by(artist)%>%summarise(title,spch)

## `summarise()` has grouped output by 'artist'. You can override using the `.groups` argument.

spch_pop

## # A tibble: 49 x 3
## # Groups:   artist [36]
##    artist           title                                                   spch
##    <chr>            <chr>                                                  <dbl>
##  1 "Alessia Cara"   "How Far I'll Go - From \"Moana\""                        35
##  2 "Alicia Keys"    "Girl On Fire (feat. Nicki Minaj) - Inferno Version"      31
##  3 "Ariana Grande"  "Focus"                                                   24
##  4 "Ariana Grande"  "Side To Side"                                            23
##  5 "Beyonc\xe9"     "Partition"                                               29
##  6 "Beyonc\xe9"     "XO"                                                      26
##  7 "Camila Cabello" "Crying in the Club"                                      38
##  8 "Cardi B"        "Drip (feat. Migos)"                                      26
##  9 "Charlie Puth"   "We Don't Talk Anymore - DROELOE Remix"                   22
## 10 "Christina Agui~ "Something's Got A Hold On Me - Burlesque Original Mo~    27
## # ... with 39 more rows
…
